{"name": "EventLog", "id": 4909755, "title": "Event log", "hidden": false, "sealed":false,"version": "2.0", "fields": [
    {
        "name": "id",
        "title": "Id",
        "description": "Id",
        "type": "Text",
        "nullable": false,
        "size": 36,
        "primary":true,
        "value": "javascript:return this.newGuid();"
    },
    {
        "name": "eventType",
        "title": "Event type",
        "description": "Event Type",
        "type": "Number",
        "nullable": false,
        "size": 4
    },
    {
        "name": "username",
        "title": "User",
        "description": "User",
        "type": "Text",
        "nullable": false,
        "size": 50
    },
    {
        "name": "title",
        "title": "Title",
        "description": "Title",
        "type": "Text",
        "nullable": false,
        "size": 512
    },
    {
        "name": "eventDate",
        "title": "Date",
        "description": "Date",
        "type": "DateTime",
        "nullable": false,
        "size": 8,
        "value":"javascript:return this.now();"
    },
    {
        "name": "eventSource",
        "title": "Event Source",
        "description": "Event Source",
        "type": "Text",
        "nullable": false,
        "size": 50,
        "value": "javascript:return 'students';"
    },
    {
        "name": "eventApplication",
        "title": "Application",
        "description": "Application",
        "type": "Text",
        "nullable": false,
        "size": 50,
        "value": "javascript:return 'universis';"
    },
    {
        "name": "dateModified",
        "title": "dateModified",
        "description": "dateModified",
        "type": "DateTime",
        "nullable": false,
        "size": 8,
        "value":"javascript:return this.now();"
    }

], "privileges":[
    { "mask":15, "type":"global" }
]
, "eventListeners":[

]
}