{
  "name": "Internship",
  "id": 605961235,
  "title": "Πρακτική άσκηση",
  "hidden": false,
  "sealed": false,
  "version": "2.2",
  "fields": [
    {
      "name": "id",
      "title": "Κωδικός",
      "description": "Ο μοναδικός κωδικός της πρακτικής άσκησης",
      "type": "Integer",
      "nullable": false,
      "size": 4,
      "primary": true
    },
    {
      "name": "name",
      "title": "Ονομασία",
      "description": "Η ονομασία της πρακτικής άσκησης",
      "type": "Text",
      "nullable": true,
      "size": 512
    },
    {
      "name": "department",
      "title": "Τμήμα",
      "description": "Το τμήμα που προσφέρει την πρακτική άσκηση.",
      "type": "Department",
      "nullable": false
    },
    {
      "name": "student",
      "title": "Φοιτητής",
      "description": "Φοιτητής",
      "type": "Student",
      "nullable": true
    },
    {
      "name": "company",
      "title": "Εταιρεία",
      "description": "Η εταιρεια-οργανισμός που προσφέρει την πρακτική άσκηση",
      "type": "Integer",
      "nullable": true,
      "size": 4
    },
    {
      "name": "companyContact",
      "title": "Υπεύθυνος",
      "description": "Ο υπεύθυνος επικοινωνίας της εταιρείας-οργανισμού.",
      "type": "Text",
      "nullable": true,
      "size": 60
    },
    {
      "name": "companyContactPhone",
      "title": "Τηλέφωνο υπεύθυνου",
      "description": "Το τηλέφωνο επικοινωνίας του υπεύθυνου της εταιρείας-οργανισμού.",
      "type": "Text",
      "nullable": true,
      "size": 40
    },
    {
      "name": "internshipYear",
      "title": "Ακαδημαϊκό έτος",
      "description": "Το ακαδημαϊκό έτος διεξαγωγής της πρακτικής άσκησης.",
      "type": "AcademicYear",
      "expandable": true,
      "nullable": false
    },
    {
      "name": "internshipPeriod",
      "title": "Ακαδημαϊκή περίοδος",
      "description": "Η ακαδημαϊκή περίοδος διεξαγωγής της πρακτικής άσκησης.",
      "type": "AcademicPeriod",
      "expandable": true
    },
    {
      "name": "internshipDate",
      "title": "Ημερομηνία εγγραφής",
      "description": "Η ημερομηνία εγγραφής στην πρακτική άσκηση",
      "type": "DateTime",
      "nullable": true,
      "size": 4
    },
    {
      "name": "startDate",
      "title": "Ημερομηνία έναρξης",
      "description": "Η ημερομηνία έναρξης της πρακτικής άσκησης",
      "type": "DateTime",
      "nullable": true,
      "size": 4
    },
    {
      "name": "endDate",
      "title": "Ημερομηνία λήξης",
      "description": "Η ημερομηνία λήξης της πρακτικής άσκησης.",
      "type": "DateTime",
      "nullable": true,
      "size": 4
    },
    {
      "name": "status",
      "title": "Κατάσταση",
      "description": "Η κατάσταση της πρακτικής άσκησης.",
      "type": "InternshipStatus",
      "nullable": false
    },
    {
      "name": "instructor",
      "title": "Υπεύθυνος",
      "description": "Ο επιστημονικός υπεύθυνος της εργασίας.",
      "type": "Instructor",
      "nullable": true
    },
    {
      "name": "dateCompleted",
      "title": "Ημερομηνία ολοκλήρωσης",
      "description": "Η ημερομηνία ολοκλήρωσης της πρακτικής άσκησης.",
      "type": "DateTime",
      "nullable": true
    },
    {
      "name": "notes",
      "title": "Σημειώσεις",
      "description": "Σημειώσεις",
      "type": "Text",
      "size": 1024
    },
    {
      "name": "dateModified",
      "title": "Ημερομηνία τροποποίησης",
      "description": "Ημερομηνία τροποποίησης",
      "type": "DateTime",
      "nullable": false
    }
  ],
  "privileges": [
    {
      "mask": 15,
      "type": "global"
    },
    {
      "mask": 15,
      "type": "global",
      "account": "Administrators"
    },
    {
      "mask": 1,
      "type": "self",
      "filter": "student eq student()"
    },

    {
      "mask": 15,
      "type": "self",
      "account": "Registrar",
      "filter": "student/department eq departments()"
    }
  ]
}