{
    "name": "Rule",
    "id": 912964375,
    "title": "Rules",
    "hidden": false,
    "sealed": false,
    "version": "2.0",
    "fields": [
        {
            "name": "id",
            "title": "Id",
            "description": "Id",
            "type": "Integer",
            "nullable": false,
            "primary": true
        },
        {
            "name": "target",
            "title": "The target object",
            "description": "The target object",
            "type": "Text",
            "nullable": false
        },
        {
            "name": "targetType",
            "title": "Target type",
            "description": "The type of the target object",
            "type": "Text",
            "nullable": false
        },
        {
            "name": "refersTo",
            "title": "Refers to model",
            "description": "Refers to model",
            "type": "Text",
            "nullable": false
        },
        {
            "name": "additionalType",
            "title": "The rule additional type",
            "description": "The rule additional type",
            "type": "Text",
            "nullable": false
        },
        {
            "name": "checkValues",
            "title": "The values to check",
            "description": "The values to check",
            "type": "Text"
        },
        {
            "name": "ruleOperator",
            "title": "Rule operator",
            "description": "The rule operator",
            "type": "Integer"
        },
        {
            "name": "value1",
            "title": "Value 1",
            "description": "Value 1",
            "type": "Text"
        },
        {
            "name": "value2",
            "title": "Value 2",
            "description": "Value 2",
            "type": "Text"
        },
        {
            "name": "value3",
            "title": "Value 3",
            "description": "Value 3",
            "type": "Text"
        },
        {
            "name": "value4",
            "title": "Value 4",
            "description": "Value 4",
            "type": "Text"
        },
        {
            "name": "value5",
            "title": "Value 5",
            "description": "Value 5",
            "type": "Text"
        },
        {
            "name": "value6",
            "title": "Value 6",
            "description": "Value 6",
            "type": "Text"
        },
        {
            "name": "value7",
            "title": "Value 7",
            "description": "Value 7",
            "type": "Text"
        },
        {
            "name": "value8",
            "title": "Value 8",
            "description": "Value 8",
            "type": "Text"
        },
        {
            "name": "value9",
            "title": "Value 9",
            "description": "Value 9",
            "type": "Text"
        },
        {
            "name": "value10",
            "title": "Value 10",
            "description": "Value 10",
            "type": "Text"
        },
        {
            "name": "value11",
            "title": "Value 11",
            "description": "Value 11",
            "type": "Text"
        },
        {
            "name": "value12",
            "title": "Value 12",
            "description": "Value 12",
            "type": "Text"
        },
        {
            "name": "value13",
            "title": "Value 13",
            "description": "Value 13",
            "type": "Text"
        },
        {
            "name": "ruleExpression",
            "title": "The rule expression",
            "description": "The rule expression",
            "type": "Text"
        },
        {
            "name": "programSpecialty",
            "title": "The rule for specific program specialty",
            "description": "The rule program specialty",
            "type": "Integer"
        }
    ],
    "privileges": [
        {
            "mask": 1,
            "type": "global",
            "account": "*"
        },
        {
            "mask": 15,
            "type": "global"
        }
    ]
}