{
    "name": "StudentCategory",
    "id": 1117963059,
    "title": "Student Categories",
    "hidden": false,
    "sealed": false,
    "version": "2.0",
    "category": "lookup",
    "fields": [
        {
            "name": "id",
            "title": "Id",
            "description": "Id",
            "type": "Integer",
            "nullable": false,
            "size": 4,
            "primary": true
        },
        {
            "name": "name",
            "title": "Name",
            "description": "The name of the item.",
            "type": "Text",
            "nullable": false,
            "size": 40
        }
    ],
    "privileges": [
        {
            "mask": 1,
            "type": "global",
            "account": "*"
        },
        {
            "mask": 15,
            "type": "global"
        }
    ],
    "eventListeners": [
        {
            "name": "Lookup Cache Listener",
            "type": "./listeners/lookup-cache-listener.js"
        }
    ]
}