{
    "$schema": "https://themost-framework.github.io/themost/models/2018/2/schema.json",
    "@id": "http://schema.org/UpdateAction",
    "name": "UpdateAction",
    "description": "The act of managing by changing/editing the state of the object.",
    "title": "UpdateAction",
    "abstract": false,
    "sealed": false,
    "inherits": "Action",
    "version": "1.5",
    "fields": [

    ],
    "privileges": [
        {
            "mask": 15,
            "type": "global"
        },
        {
            "mask": 15,
            "type": "global",
            "account": "Administrators"
        }
    ]
}
